Thu, 16 Apr 2015 08:08:58 -0400:Recovered session:null
Thu, 16 Apr 2015 08:09:44 -0400: Recovered session:null
Thu, 16 Apr 2015 08:12:38 -0400: Recovered session:null
Thu, 16 Apr 2015 08:13:26 -0400: New watermark for Andrea Fortuna, filename: concita_wurstel.png
Thu, 16 Apr 2015 08:13:27 -0400: New watermark for Andrea Fortuna, filename: eclipse.jpg
Thu, 16 Apr 2015 08:13:27 -0400: New watermark for Andrea Fortuna, filename: eleonora_leggenda.jpg
Thu, 16 Apr 2015 08:13:28 -0400: New watermark for Andrea Fortuna, filename: eleonoraantennista.jpg
Thu, 16 Apr 2015 08:13:28 -0400: Recovered session:Andrea Fortuna
Thu, 16 Apr 2015 08:14:12 -0400: Recovered session:Andrea Fortuna
Thu, 16 Apr 2015 08:18:28 -0400: Recovered session:Andrea Fortuna
Thu, 16 Apr 2015 08:18:33 -0400: Recovered session:Andrea Fortuna
Thu, 16 Apr 2015 08:18:33 -0400: Recovered session:Andrea Fortuna
Thu, 16 Apr 2015 08:21:00 -0400: Recovered session:Andrea Fortuna
